using System;
using System.Collections.Generic;
using System.Linq;
using System.Web;
using System.Web.UI;
using System.Web.UI.WebControls;
using System.Configuration;
using System.Data.SqlClient;

namespace New
{
    public partial class Login : System.Web.UI.Page
    {
        protected void Page_Load(object sender, EventArgs e)
        {
            
        }

        protected void Button1_Click(object sender, EventArgs e)
        {
            string cs = ConfigurationManager.ConnectionStrings["DBCS"].ConnectionString;
            SqlConnection conn = new SqlConnection(cs);

            SqlCommand cmd = new SqlCommand("", conn);
            string query1 = string.Format("Select count(*) from Users where Username= @user");
            cmd.CommandText = query1;

            try
            {
                conn.Open();
                cmd.Parameters.AddWithValue("@user", username.Text);
                int result = (int)cmd.ExecuteScalar();
                if (result == 1)
                {
                    query1 = string.Format("Select Password from Users where Username = @user", username.Text);
                    cmd.CommandText = query1;
                    string dbpass = cmd.ExecuteScalar().ToString();
                    if (dbpass == password.Text)
                    {
                        query1 = string.Format("Select Password from Users where Username = @user", username.Text);
                        cmd.CommandText = query1;
                        string tipi = cmd.ExecuteScalar().ToString();
                        Session["user"] = username.Text;
                        Session["tipi"] = tipi;
                        Response.Redirect("Home.aspx");
                    }

                    else
                    { Response.Write("Passwordi eshte vendosur gabim"); }

                }

                else { Response.Write("User nuk ekziston"); }
            }
              
            finally { conn.Close(); }
        }

        }
    }
